simulation/qsim/MIPS.msim.vcd
$comment
	File created using the following command:
		vcd file MIPS.msim.vcd -direction
$end
$date
	Thu Nov 16 17:25:01 2017
$end
$version
	ModelSim Version 10.5b
$end
$timescale
	1ps
$end

$scope module ula_vhd_vec_tst $end
$var wire 1 ! A [31] $end
$var wire 1 " A [30] $end
$var wire 1 # A [29] $end
$var wire 1 $ A [28] $end
$var wire 1 % A [27] $end
$var wire 1 & A [26] $end
$var wire 1 ' A [25] $end
$var wire 1 ( A [24] $end
$var wire 1 ) A [23] $end
$var wire 1 * A [22] $end
$var wire 1 + A [21] $end
$var wire 1 , A [20] $end
$var wire 1 - A [19] $end
$var wire 1 . A [18] $end
$var wire 1 / A [17] $end
$var wire 1 0 A [16] $end
$var wire 1 1 A [15] $end
$var wire 1 2 A [14] $end
$var wire 1 3 A [13] $end
$var wire 1 4 A [12] $end
$var wire 1 5 A [11] $end
$var wire 1 6 A [10] $end
$var wire 1 7 A [9] $end
$var wire 1 8 A [8] $end
$var wire 1 9 A [7] $end
$var wire 1 : A [6] $end
$var wire 1 ; A [5] $end
$var wire 1 < A [4] $end
$var wire 1 = A [3] $end
$var wire 1 > A [2] $end
$var wire 1 ? A [1] $end
$var wire 1 @ A [0] $end
$var wire 1 A B [31] $end
$var wire 1 B B [30] $end
$var wire 1 C B [29] $end
$var wire 1 D B [28] $end
$var wire 1 E B [27] $end
$var wire 1 F B [26] $end
$var wire 1 G B [25] $end
$var wire 1 H B [24] $end
$var wire 1 I B [23] $end
$var wire 1 J B [22] $end
$var wire 1 K B [21] $end
$var wire 1 L B [20] $end
$var wire 1 M B [19] $end
$var wire 1 N B [18] $end
$var wire 1 O B [17] $end
$var wire 1 P B [16] $end
$var wire 1 Q B [15] $end
$var wire 1 R B [14] $end
$var wire 1 S B [13] $end
$var wire 1 T B [12] $end
$var wire 1 U B [11] $end
$var wire 1 V B [10] $end
$var wire 1 W B [9] $end
$var wire 1 X B [8] $end
$var wire 1 Y B [7] $end
$var wire 1 Z B [6] $end
$var wire 1 [ B [5] $end
$var wire 1 \ B [4] $end
$var wire 1 ] B [3] $end
$var wire 1 ^ B [2] $end
$var wire 1 _ B [1] $end
$var wire 1 ` B [0] $end
$var wire 1 a Cin $end
$var wire 1 b Cout $end
$var wire 1 c INV_A $end
$var wire 1 d INV_B $end
$var wire 1 e S [31] $end
$var wire 1 f S [30] $end
$var wire 1 g S [29] $end
$var wire 1 h S [28] $end
$var wire 1 i S [27] $end
$var wire 1 j S [26] $end
$var wire 1 k S [25] $end
$var wire 1 l S [24] $end
$var wire 1 m S [23] $end
$var wire 1 n S [22] $end
$var wire 1 o S [21] $end
$var wire 1 p S [20] $end
$var wire 1 q S [19] $end
$var wire 1 r S [18] $end
$var wire 1 s S [17] $end
$var wire 1 t S [16] $end
$var wire 1 u S [15] $end
$var wire 1 v S [14] $end
$var wire 1 w S [13] $end
$var wire 1 x S [12] $end
$var wire 1 y S [11] $end
$var wire 1 z S [10] $end
$var wire 1 { S [9] $end
$var wire 1 | S [8] $end
$var wire 1 } S [7] $end
$var wire 1 ~ S [6] $end
$var wire 1 !! S [5] $end
$var wire 1 "! S [4] $end
$var wire 1 #! S [3] $end
$var wire 1 $! S [2] $end
$var wire 1 %! S [1] $end
$var wire 1 &! S [0] $end
$var wire 1 '! SEL [1] $end
$var wire 1 (! SEL [0] $end
$var wire 1 )! ZERO $end

$scope module i1 $end
$var wire 1 *! gnd $end
$var wire 1 +! vcc $end
$var wire 1 ,! unknown $end
$var wire 1 -! devoe $end
$var wire 1 .! devclrn $end
$var wire 1 /! devpor $end
$var wire 1 0! ww_devoe $end
$var wire 1 1! ww_devclrn $end
$var wire 1 2! ww_devpor $end
$var wire 1 3! ww_A [31] $end
$var wire 1 4! ww_A [30] $end
$var wire 1 5! ww_A [29] $end
$var wire 1 6! ww_A [28] $end
$var wire 1 7! ww_A [27] $end
$var wire 1 8! ww_A [26] $end
$var wire 1 9! ww_A [25] $end
$var wire 1 :! ww_A [24] $end
$var wire 1 ;! ww_A [23] $end
$var wire 1 <! ww_A [22] $end
$var wire 1 =! ww_A [21] $end
$var wire 1 >! ww_A [20] $end
$var wire 1 ?! ww_A [19] $end
$var wire 1 @! ww_A [18] $end
$var wire 1 A! ww_A [17] $end
$var wire 1 B! ww_A [16] $end
$var wire 1 C! ww_A [15] $end
$var wire 1 D! ww_A [14] $end
$var wire 1 E! ww_A [13] $end
$var wire 1 F! ww_A [12] $end
$var wire 1 G! ww_A [11] $end
$var wire 1 H! ww_A [10] $end
$var wire 1 I! ww_A [9] $end
$var wire 1 J! ww_A [8] $end
$var wire 1 K! ww_A [7] $end
$var wire 1 L! ww_A [6] $end
$var wire 1 M! ww_A [5] $end
$var wire 1 N! ww_A [4] $end
$var wire 1 O! ww_A [3] $end
$var wire 1 P! ww_A [2] $end
$var wire 1 Q! ww_A [1] $end
$var wire 1 R! ww_A [0] $end
$var wire 1 S! ww_B [31] $end
$var wire 1 T! ww_B [30] $end
$var wire 1 U! ww_B [29] $end
$var wire 1 V! ww_B [28] $end
$var wire 1 W! ww_B [27] $end
$var wire 1 X! ww_B [26] $end
$var wire 1 Y! ww_B [25] $end
$var wire 1 Z! ww_B [24] $end
$var wire 1 [! ww_B [23] $end
$var wire 1 \! ww_B [22] $end
$var wire 1 ]! ww_B [21] $end
$var wire 1 ^! ww_B [20] $end
$var wire 1 _! ww_B [19] $end
$var wire 1 `! ww_B [18] $end
$var wire 1 a! ww_B [17] $end
$var wire 1 b! ww_B [16] $end
$var wire 1 c! ww_B [15] $end
$var wire 1 d! ww_B [14] $end
$var wire 1 e! ww_B [13] $end
$var wire 1 f! ww_B [12] $end
$var wire 1 g! ww_B [11] $end
$var wire 1 h! ww_B [10] $end
$var wire 1 i! ww_B [9] $end
$var wire 1 j! ww_B [8] $end
$var wire 1 k! ww_B [7] $end
$var wire 1 l! ww_B [6] $end
$var wire 1 m! ww_B [5] $end
$var wire 1 n! ww_B [4] $end
$var wire 1 o! ww_B [3] $end
$var wire 1 p! ww_B [2] $end
$var wire 1 q! ww_B [1] $end
$var wire 1 r! ww_B [0] $end
$var wire 1 s! ww_INV_A $end
$var wire 1 t! ww_INV_B $end
$var wire 1 u! ww_Cin $end
$var wire 1 v! ww_Cout $end
$var wire 1 w! ww_SEL [1] $end
$var wire 1 x! ww_SEL [0] $end
$var wire 1 y! ww_S [31] $end
$var wire 1 z! ww_S [30] $end
$var wire 1 {! ww_S [29] $end
$var wire 1 |! ww_S [28] $end
$var wire 1 }! ww_S [27] $end
$var wire 1 ~! ww_S [26] $end
$var wire 1 !" ww_S [25] $end
$var wire 1 "" ww_S [24] $end
$var wire 1 #" ww_S [23] $end
$var wire 1 $" ww_S [22] $end
$var wire 1 %" ww_S [21] $end
$var wire 1 &" ww_S [20] $end
$var wire 1 '" ww_S [19] $end
$var wire 1 (" ww_S [18] $end
$var wire 1 )" ww_S [17] $end
$var wire 1 *" ww_S [16] $end
$var wire 1 +" ww_S [15] $end
$var wire 1 ," ww_S [14] $end
$var wire 1 -" ww_S [13] $end
$var wire 1 ." ww_S [12] $end
$var wire 1 /" ww_S [11] $end
$var wire 1 0" ww_S [10] $end
$var wire 1 1" ww_S [9] $end
$var wire 1 2" ww_S [8] $end
$var wire 1 3" ww_S [7] $end
$var wire 1 4" ww_S [6] $end
$var wire 1 5" ww_S [5] $end
$var wire 1 6" ww_S [4] $end
$var wire 1 7" ww_S [3] $end
$var wire 1 8" ww_S [2] $end
$var wire 1 9" ww_S [1] $end
$var wire 1 :" ww_S [0] $end
$var wire 1 ;" ww_ZERO $end
$var wire 1 <" \Cout~output_o\ $end
$var wire 1 =" \S[0]~output_o\ $end
$var wire 1 >" \S[1]~output_o\ $end
$var wire 1 ?" \S[2]~output_o\ $end
$var wire 1 @" \S[3]~output_o\ $end
$var wire 1 A" \S[4]~output_o\ $end
$var wire 1 B" \S[5]~output_o\ $end
$var wire 1 C" \S[6]~output_o\ $end
$var wire 1 D" \S[7]~output_o\ $end
$var wire 1 E" \S[8]~output_o\ $end
$var wire 1 F" \S[9]~output_o\ $end
$var wire 1 G" \S[10]~output_o\ $end
$var wire 1 H" \S[11]~output_o\ $end
$var wire 1 I" \S[12]~output_o\ $end
$var wire 1 J" \S[13]~output_o\ $end
$var wire 1 K" \S[14]~output_o\ $end
$var wire 1 L" \S[15]~output_o\ $end
$var wire 1 M" \S[16]~output_o\ $end
$var wire 1 N" \S[17]~output_o\ $end
$var wire 1 O" \S[18]~output_o\ $end
$var wire 1 P" \S[19]~output_o\ $end
$var wire 1 Q" \S[20]~output_o\ $end
$var wire 1 R" \S[21]~output_o\ $end
$var wire 1 S" \S[22]~output_o\ $end
$var wire 1 T" \S[23]~output_o\ $end
$var wire 1 U" \S[24]~output_o\ $end
$var wire 1 V" \S[25]~output_o\ $end
$var wire 1 W" \S[26]~output_o\ $end
$var wire 1 X" \S[27]~output_o\ $end
$var wire 1 Y" \S[28]~output_o\ $end
$var wire 1 Z" \S[29]~output_o\ $end
$var wire 1 [" \S[30]~output_o\ $end
$var wire 1 \" \S[31]~output_o\ $end
$var wire 1 ]" \ZERO~output_o\ $end
$var wire 1 ^" \A[31]~input_o\ $end
$var wire 1 _" \INV_B~input_o\ $end
$var wire 1 `" \B[31]~input_o\ $end
$var wire 1 a" \mux_b|X[31]~0_combout\ $end
$var wire 1 b" \A[30]~input_o\ $end
$var wire 1 c" \A[29]~input_o\ $end
$var wire 1 d" \B[29]~input_o\ $end
$var wire 1 e" \mux_b|X[29]~2_combout\ $end
$var wire 1 f" \A[27]~input_o\ $end
$var wire 1 g" \A[26]~input_o\ $end
$var wire 1 h" \B[26]~input_o\ $end
$var wire 1 i" \mux_b|X[26]~5_combout\ $end
$var wire 1 j" \INV_A~input_o\ $end
$var wire 1 k" \B[25]~input_o\ $end
$var wire 1 l" \mux_b|X[25]~6_combout\ $end
$var wire 1 m" \A[25]~input_o\ $end
$var wire 1 n" \A[24]~input_o\ $end
$var wire 1 o" \A[23]~input_o\ $end
$var wire 1 p" \A[22]~input_o\ $end
$var wire 1 q" \B[19]~input_o\ $end
$var wire 1 r" \mux_b|X[19]~12_combout\ $end
$var wire 1 s" \A[19]~input_o\ $end
$var wire 1 t" \A[18]~input_o\ $end
$var wire 1 u" \A[16]~input_o\ $end
$var wire 1 v" \A[15]~input_o\ $end
$var wire 1 w" \B[14]~input_o\ $end
$var wire 1 x" \mux_b|X[14]~17_combout\ $end
$var wire 1 y" \A[14]~input_o\ $end
$var wire 1 z" \B[11]~input_o\ $end
$var wire 1 {" \mux_b|X[11]~20_combout\ $end
$var wire 1 |" \A[10]~input_o\ $end
$var wire 1 }" \B[8]~input_o\ $end
$var wire 1 ~" \mux_b|X[8]~23_combout\ $end
$var wire 1 !# \A[8]~input_o\ $end
$var wire 1 "# \B[6]~input_o\ $end
$var wire 1 ## \mux_b|X[6]~25_combout\ $end
$var wire 1 $# \B[4]~input_o\ $end
$var wire 1 %# \mux_b|X[4]~27_combout\ $end
$var wire 1 &# \B[3]~input_o\ $end
$var wire 1 '# \mux_b|X[3]~28_combout\ $end
$var wire 1 (# \B[1]~input_o\ $end
$var wire 1 )# \mux_b|X[1]~30_combout\ $end
$var wire 1 *# \A[1]~input_o\ $end
$var wire 1 +# \Cin~input_o\ $end
$var wire 1 ,# \A[0]~input_o\ $end
$var wire 1 -# \B[0]~input_o\ $end
$var wire 1 .# \mux_b|X[0]~31_combout\ $end
$var wire 1 /# \full_adder|FA:0:FA_i|Cout~0_combout\ $end
$var wire 1 0# \full_adder|FA:1:FA_i|Cout~0_combout\ $end
$var wire 1 1# \A[2]~input_o\ $end
$var wire 1 2# \B[2]~input_o\ $end
$var wire 1 3# \mux_b|X[2]~29_combout\ $end
$var wire 1 4# \full_adder|FA:2:FA_i|Cout~0_combout\ $end
$var wire 1 5# \A[3]~input_o\ $end
$var wire 1 6# \full_adder|FA:3:FA_i|Cout~0_combout\ $end
$var wire 1 7# \A[4]~input_o\ $end
$var wire 1 8# \full_adder|FA:4:FA_i|Cout~0_combout\ $end
$var wire 1 9# \A[5]~input_o\ $end
$var wire 1 :# \B[5]~input_o\ $end
$var wire 1 ;# \mux_b|X[5]~26_combout\ $end
$var wire 1 <# \full_adder|FA:5:FA_i|Cout~0_combout\ $end
$var wire 1 =# \A[6]~input_o\ $end
$var wire 1 ># \full_adder|FA:6:FA_i|Cout~0_combout\ $end
$var wire 1 ?# \B[7]~input_o\ $end
$var wire 1 @# \mux_b|X[7]~24_combout\ $end
$var wire 1 A# \A[7]~input_o\ $end
$var wire 1 B# \full_adder|FA:7:FA_i|Cout~0_combout\ $end
$var wire 1 C# \full_adder|FA:8:FA_i|Cout~0_combout\ $end
$var wire 1 D# \A[9]~input_o\ $end
$var wire 1 E# \B[9]~input_o\ $end
$var wire 1 F# \mux_b|X[9]~22_combout\ $end
$var wire 1 G# \full_adder|FA:9:FA_i|Cout~0_combout\ $end
$var wire 1 H# \B[10]~input_o\ $end
$var wire 1 I# \mux_b|X[10]~21_combout\ $end
$var wire 1 J# \full_adder|FA:10:FA_i|Cout~0_combout\ $end
$var wire 1 K# \A[11]~input_o\ $end
$var wire 1 L# \full_adder|FA:11:FA_i|Cout~0_combout\ $end
$var wire 1 M# \B[12]~input_o\ $end
$var wire 1 N# \mux_b|X[12]~19_combout\ $end
$var wire 1 O# \A[12]~input_o\ $end
$var wire 1 P# \full_adder|FA:12:FA_i|Cout~0_combout\ $end
$var wire 1 Q# \A[13]~input_o\ $end
$var wire 1 R# \B[13]~input_o\ $end
$var wire 1 S# \mux_b|X[13]~18_combout\ $end
$var wire 1 T# \full_adder|FA:13:FA_i|Cout~0_combout\ $end
$var wire 1 U# \full_adder|FA:14:FA_i|Cout~0_combout\ $end
$var wire 1 V# \B[15]~input_o\ $end
$var wire 1 W# \mux_b|X[15]~16_combout\ $end
$var wire 1 X# \full_adder|FA:15:FA_i|Cout~0_combout\ $end
$var wire 1 Y# \B[16]~input_o\ $end
$var wire 1 Z# \mux_b|X[16]~15_combout\ $end
$var wire 1 [# \full_adder|FA:16:FA_i|Cout~0_combout\ $end
$var wire 1 \# \A[17]~input_o\ $end
$var wire 1 ]# \B[17]~input_o\ $end
$var wire 1 ^# \mux_b|X[17]~14_combout\ $end
$var wire 1 _# \full_adder|FA:17:FA_i|Cout~0_combout\ $end
$var wire 1 `# \B[18]~input_o\ $end
$var wire 1 a# \mux_b|X[18]~13_combout\ $end
$var wire 1 b# \full_adder|FA:18:FA_i|Cout~0_combout\ $end
$var wire 1 c# \full_adder|FA:19:FA_i|Cout~0_combout\ $end
$var wire 1 d# \B[20]~input_o\ $end
$var wire 1 e# \mux_b|X[20]~11_combout\ $end
$var wire 1 f# \A[20]~input_o\ $end
$var wire 1 g# \full_adder|FA:20:FA_i|Cout~0_combout\ $end
$var wire 1 h# \B[21]~input_o\ $end
$var wire 1 i# \mux_b|X[21]~10_combout\ $end
$var wire 1 j# \A[21]~input_o\ $end
$var wire 1 k# \full_adder|FA:21:FA_i|Cout~0_combout\ $end
$var wire 1 l# \B[22]~input_o\ $end
$var wire 1 m# \mux_b|X[22]~9_combout\ $end
$var wire 1 n# \full_adder|FA:22:FA_i|Cout~0_combout\ $end
$var wire 1 o# \B[23]~input_o\ $end
$var wire 1 p# \mux_b|X[23]~8_combout\ $end
$var wire 1 q# \full_adder|FA:23:FA_i|Cout~0_combout\ $end
$var wire 1 r# \B[24]~input_o\ $end
$var wire 1 s# \mux_b|X[24]~7_combout\ $end
$var wire 1 t# \full_adder|FA:24:FA_i|Cout~0_combout\ $end
$var wire 1 u# \full_adder|FA:25:FA_i|Cout~0_combout\ $end
$var wire 1 v# \full_adder|FA:26:FA_i|Cout~0_combout\ $end
$var wire 1 w# \B[27]~input_o\ $end
$var wire 1 x# \mux_b|X[27]~4_combout\ $end
$var wire 1 y# \full_adder|FA:27:FA_i|Cout~0_combout\ $end
$var wire 1 z# \A[28]~input_o\ $end
$var wire 1 {# \B[28]~input_o\ $end
$var wire 1 |# \mux_b|X[28]~3_combout\ $end
$var wire 1 }# \full_adder|FA:28:FA_i|Cout~0_combout\ $end
$var wire 1 ~# \full_adder|FA:29:FA_i|Cout~0_combout\ $end
$var wire 1 !$ \B[30]~input_o\ $end
$var wire 1 "$ \mux_b|X[30]~1_combout\ $end
$var wire 1 #$ \full_adder|FA:30:FA_i|Cout~0_combout\ $end
$var wire 1 $$ \full_adder|FA:31:FA_i|Cout~0_combout\ $end
$var wire 1 %$ \mux_a|X[31]~1_combout\ $end
$var wire 1 &$ \SEL[1]~input_o\ $end
$var wire 1 '$ \SEL[0]~input_o\ $end
$var wire 1 ($ \mux_a|X[0]~0_combout\ $end
$var wire 1 )$ \mux_sel|X[0]~0_combout\ $end
$var wire 1 *$ \full_adder|FA:0:FA_i|S~combout\ $end
$var wire 1 +$ \mux_sel|X[0]~1_combout\ $end
$var wire 1 ,$ \mux_sel|X[1]~2_combout\ $end
$var wire 1 -$ \mux_sel|X[1]~3_combout\ $end
$var wire 1 .$ \mux_sel|X[2]~4_combout\ $end
$var wire 1 /$ \mux_sel|X[2]~5_combout\ $end
$var wire 1 0$ \mux_sel|X[3]~6_combout\ $end
$var wire 1 1$ \mux_sel|X[3]~7_combout\ $end
$var wire 1 2$ \mux_sel|X[4]~8_combout\ $end
$var wire 1 3$ \mux_sel|X[4]~9_combout\ $end
$var wire 1 4$ \mux_sel|X[5]~10_combout\ $end
$var wire 1 5$ \mux_sel|X[5]~11_combout\ $end
$var wire 1 6$ \mux_sel|X[6]~12_combout\ $end
$var wire 1 7$ \mux_sel|X[6]~13_combout\ $end
$var wire 1 8$ \mux_sel|X[7]~14_combout\ $end
$var wire 1 9$ \mux_sel|X[7]~15_combout\ $end
$var wire 1 :$ \mux_sel|X[8]~16_combout\ $end
$var wire 1 ;$ \mux_sel|X[8]~17_combout\ $end
$var wire 1 <$ \mux_sel|X[9]~18_combout\ $end
$var wire 1 =$ \mux_sel|X[9]~19_combout\ $end
$var wire 1 >$ \mux_sel|X[10]~20_combout\ $end
$var wire 1 ?$ \mux_sel|X[10]~21_combout\ $end
$var wire 1 @$ \mux_sel|X[11]~22_combout\ $end
$var wire 1 A$ \mux_sel|X[11]~23_combout\ $end
$var wire 1 B$ \mux_sel|X[12]~24_combout\ $end
$var wire 1 C$ \mux_sel|X[12]~25_combout\ $end
$var wire 1 D$ \mux_sel|X[13]~26_combout\ $end
$var wire 1 E$ \mux_sel|X[13]~27_combout\ $end
$var wire 1 F$ \mux_sel|X[14]~28_combout\ $end
$var wire 1 G$ \mux_sel|X[14]~29_combout\ $end
$var wire 1 H$ \mux_sel|X[15]~30_combout\ $end
$var wire 1 I$ \mux_sel|X[15]~31_combout\ $end
$var wire 1 J$ \mux_sel|X[16]~32_combout\ $end
$var wire 1 K$ \mux_sel|X[16]~33_combout\ $end
$var wire 1 L$ \mux_sel|X[17]~34_combout\ $end
$var wire 1 M$ \mux_sel|X[17]~35_combout\ $end
$var wire 1 N$ \mux_sel|X[18]~36_combout\ $end
$var wire 1 O$ \mux_sel|X[18]~37_combout\ $end
$var wire 1 P$ \mux_sel|X[19]~38_combout\ $end
$var wire 1 Q$ \mux_sel|X[19]~39_combout\ $end
$var wire 1 R$ \mux_sel|X[20]~40_combout\ $end
$var wire 1 S$ \mux_sel|X[20]~41_combout\ $end
$var wire 1 T$ \mux_sel|X[21]~42_combout\ $end
$var wire 1 U$ \full_adder|FA:21:FA_i|S~combout\ $end
$var wire 1 V$ \mux_sel|X[21]~43_combout\ $end
$var wire 1 W$ \mux_sel|X[22]~44_combout\ $end
$var wire 1 X$ \mux_sel|X[22]~45_combout\ $end
$var wire 1 Y$ \mux_sel|X[23]~46_combout\ $end
$var wire 1 Z$ \mux_sel|X[23]~47_combout\ $end
$var wire 1 [$ \mux_sel|X[24]~48_combout\ $end
$var wire 1 \$ \mux_sel|X[24]~49_combout\ $end
$var wire 1 ]$ \mux_sel|X[25]~50_combout\ $end
$var wire 1 ^$ \mux_sel|X[25]~51_combout\ $end
$var wire 1 _$ \mux_sel|X[26]~52_combout\ $end
$var wire 1 `$ \mux_sel|X[26]~53_combout\ $end
$var wire 1 a$ \mux_sel|X[27]~54_combout\ $end
$var wire 1 b$ \mux_sel|X[27]~55_combout\ $end
$var wire 1 c$ \mux_sel|X[28]~56_combout\ $end
$var wire 1 d$ \mux_sel|X[28]~57_combout\ $end
$var wire 1 e$ \mux_a|X[29]~2_combout\ $end
$var wire 1 f$ \mux_sel|X[29]~58_combout\ $end
$var wire 1 g$ \mux_sel|X[1]~59_combout\ $end
$var wire 1 h$ \full_adder|FA:29:FA_i|S~0_combout\ $end
$var wire 1 i$ \mux_sel|X[29]~60_combout\ $end
$var wire 1 j$ \mux_sel|X[30]~61_combout\ $end
$var wire 1 k$ \mux_sel|X[30]~62_combout\ $end
$var wire 1 l$ \mux_sel|X[30]~63_combout\ $end
$var wire 1 m$ \mux_sel|X[30]~64_combout\ $end
$var wire 1 n$ \mux_sel|X[31]~65_combout\ $end
$var wire 1 o$ \full_adder|FA:31:FA_i|S~0_combout\ $end
$var wire 1 p$ \mux_sel|X[31]~66_combout\ $end
$var wire 1 q$ \flag_zero|tmp[31]~9_combout\ $end
$var wire 1 r$ \flag_zero|tmp[31]~8_combout\ $end
$var wire 1 s$ \flag_zero|tmp[31]~5_combout\ $end
$var wire 1 t$ \mux_sel|X[21]~67_combout\ $end
$var wire 1 u$ \flag_zero|tmp[31]~6_combout\ $end
$var wire 1 v$ \flag_zero|tmp[31]~7_combout\ $end
$var wire 1 w$ \flag_zero|tmp[31]~1_combout\ $end
$var wire 1 x$ \flag_zero|tmp[31]~2_combout\ $end
$var wire 1 y$ \flag_zero|tmp[31]~3_combout\ $end
$var wire 1 z$ \flag_zero|tmp[31]~0_combout\ $end
$var wire 1 {$ \flag_zero|tmp[31]~4_combout\ $end
$var wire 1 |$ \flag_zero|tmp[31]~10_combout\ $end
$var wire 1 }$ \slt|S\ [31] $end
$var wire 1 ~$ \slt|S\ [30] $end
$var wire 1 !% \slt|S\ [29] $end
$var wire 1 "% \slt|S\ [28] $end
$var wire 1 #% \slt|S\ [27] $end
$var wire 1 $% \slt|S\ [26] $end
$var wire 1 %% \slt|S\ [25] $end
$var wire 1 &% \slt|S\ [24] $end
$var wire 1 '% \slt|S\ [23] $end
$var wire 1 (% \slt|S\ [22] $end
$var wire 1 )% \slt|S\ [21] $end
$var wire 1 *% \slt|S\ [20] $end
$var wire 1 +% \slt|S\ [19] $end
$var wire 1 ,% \slt|S\ [18] $end
$var wire 1 -% \slt|S\ [17] $end
$var wire 1 .% \slt|S\ [16] $end
$var wire 1 /% \slt|S\ [15] $end
$var wire 1 0% \slt|S\ [14] $end
$var wire 1 1% \slt|S\ [13] $end
$var wire 1 2% \slt|S\ [12] $end
$var wire 1 3% \slt|S\ [11] $end
$var wire 1 4% \slt|S\ [10] $end
$var wire 1 5% \slt|S\ [9] $end
$var wire 1 6% \slt|S\ [8] $end
$var wire 1 7% \slt|S\ [7] $end
$var wire 1 8% \slt|S\ [6] $end
$var wire 1 9% \slt|S\ [5] $end
$var wire 1 :% \slt|S\ [4] $end
$var wire 1 ;% \slt|S\ [3] $end
$var wire 1 <% \slt|S\ [2] $end
$var wire 1 =% \slt|S\ [1] $end
$var wire 1 >% \slt|S\ [0] $end
$var wire 1 ?% \flag_zero|ALT_INV_tmp[31]~10_combout\ $end
$upscope $end
$upscope $end
$enddefinitions $end
#0
$dumpvars
1a
0b
0c
1d
0)!
0*!
1+!
x,!
1-!
1.!
1/!
10!
11!
12!
0s!
1t!
1u!
0v!
0;"
0<"
0="
0>"
0?"
0@"
0A"
0B"
0C"
0D"
0E"
0F"
0G"
0H"
0I"
0J"
0K"
0L"
0M"
0N"
0O"
0P"
0Q"
0R"
0S"
0T"
0U"
0V"
0W"
0X"
0Y"
0Z"
0["
0\"
0]"
x^"
x_"
x`"
xa"
xb"
xc"
xd"
xe"
xf"
xg"
xh"
xi"
xj"
xk"
xl"
xm"
xn"
xo"
xp"
xq"
xr"
xs"
xt"
xu"
xv"
xw"
xx"
xy"
xz"
x{"
x|"
x}"
x~"
x!#
x"#
x##
x$#
x%#
x&#
x'#
x(#
x)#
x*#
x+#
x,#
x-#
x.#
x/#
x0#
x1#
x2#
x3#
x4#
x5#
x6#
x7#
x8#
x9#
x:#
x;#
x<#
x=#
x>#
x?#
x@#
xA#
xB#
xC#
xD#
xE#
xF#
xG#
xH#
xI#
xJ#
xK#
xL#
xM#
xN#
xO#
xP#
xQ#
xR#
xS#
xT#
xU#
xV#
xW#
xX#
xY#
xZ#
x[#
x\#
x]#
x^#
x_#
x`#
xa#
xb#
xc#
xd#
xe#
xf#
xg#
xh#
xi#
xj#
xk#
xl#
xm#
xn#
xo#
xp#
xq#
xr#
xs#
xt#
xu#
xv#
xw#
xx#
xy#
xz#
x{#
x|#
x}#
x~#
x!$
x"$
x#$
x$$
x%$
x&$
x'$
x($
x)$
x*$
x+$
x,$
x-$
x.$
x/$
x0$
x1$
x2$
x3$
x4$
x5$
x6$
x7$
x8$
x9$
x:$
x;$
x<$
x=$
x>$
x?$
x@$
xA$
xB$
xC$
xD$
xE$
xF$
xG$
xH$
xI$
xJ$
xK$
xL$
xM$
xN$
xO$
xP$
xQ$
xR$
xS$
xT$
xU$
xV$
xW$
xX$
xY$
xZ$
x[$
x\$
x]$
x^$
x_$
x`$
xa$
xb$
xc$
xd$
xe$
xf$
xg$
xh$
xi$
xj$
xk$
xl$
xm$
xn$
xo$
xp$
xq$
xr$
xs$
xt$
xu$
xv$
xw$
xx$
xy$
xz$
x{$
x|$
x?%
0!
0"
0#
0$
0%
0&
0'
0(
0)
0*
0+
0,
0-
0.
0/
00
01
02
03
04
05
06
07
08
09
0:
0;
0<
0=
0>
0?
0@
0A
0B
0C
0D
0E
0F
0G
0H
0I
0J
0K
0L
0M
0N
0O
0P
0Q
0R
0S
0T
0U
0V
0W
0X
0Y
0Z
0[
0\
0]
0^
0_
0`
1'!
1(!
03!
04!
05!
06!
07!
08!
09!
0:!
0;!
0<!
0=!
0>!
0?!
0@!
0A!
0B!
0C!
0D!
0E!
0F!
0G!
0H!
0I!
0J!
0K!
0L!
0M!
0N!
0O!
0P!
0Q!
0R!
0S!
0T!
0U!
0V!
0W!
0X!
0Y!
0Z!
0[!
0\!
0]!
0^!
0_!
0`!
0a!
0b!
0c!
0d!
0e!
0f!
0g!
0h!
0i!
0j!
0k!
0l!
0m!
0n!
0o!
0p!
0q!
0r!
1w!
1x!
0y!
0z!
0{!
0|!
0}!
0~!
0!"
0""
0#"
0$"
0%"
0&"
0'"
0("
0)"
0*"
0+"
0,"
0-"
0."
0/"
00"
01"
02"
03"
04"
05"
06"
07"
08"
09"
0:"
x}$
x~$
x!%
x"%
x#%
x$%
x%%
x&%
x'%
x(%
x)%
x*%
x+%
x,%
x-%
x.%
x/%
x0%
x1%
x2%
x3%
x4%
x5%
x6%
x7%
x8%
x9%
x:%
x;%
x<%
x=%
x>%
0e
0f
0g
0h
0i
0j
0k
0l
0m
0n
0o
0p
0q
0r
0s
0t
0u
0v
0w
0x
0y
0z
0{
0|
0}
0~
0!!
0"!
0#!
0$!
0%!
0&!
$end
#659
1_"
1+#
#689
1&$
1'$
#735
0b"
0j"
0t"
0*#
09#
0j#
0z#
#745
0^"
0o"
0u"
0v"
0!#
02#
0O#
0Q#
0R#
0o#
0r#
0w#
#755
0g"
0D#
0\#
0l#
0{#
0!$
#765
0m"
0|"
0=#
0A#
#775
0c"
0k"
0z"
0"#
0?#
0K#
0Y#
0d#
#785
0f"
0p"
0s"
0y"
0$#
0&#
0,#
05#
0:#
0M#
#795
0`"
0d"
0w"
0V#
0h#
#805
0h"
0q"
0}"
07#
0E#
0H#
0f#
#806
0n"
#815
0(#
0-#
01#
0]#
0`#
#1654
0=$
#1710
0S$
0O$
#1847
0C$
#1881
0A$
#1886
0t$
#1887
0?$
0Q$
#1888
0g$
#2066
09$
#2070
0M$
0;$
#2257
0n$
#2414
0`$
#2416
0d$
#2446
05$
#2448
07$
#2452
03$
#2454
01$
#2556
0x$
#2571
0X$
#2574
0Z$
#2576
0V$
#2599
0I$
#2600
0G$
#2603
0b$
#2606
0^$
#2664
0f$
#2674
1)$
#2698
0-$
#2702
0/$
#2775
0E$
#2779
0K$
#2860
0k$
#2920
0\$
#2931
0s$
#2962
0p$
#3307
0r$
#3374
0i$
#3503
0u$
#3557
xC"
x4"
x~
#3569
0m$
#3721
0w$
#3748
xQ"
x&"
xp
#3750
xJ"
x-"
xw
#3779
x="
x:"
x&!
#3797
xL"
x+"
xu
#3819
0y$
#3873
0v$
#3901
0z$
#4024
xX"
x}!
xi
#4092
xW"
x~!
xj
#4180
xB"
x5"
x!!
#4491
xV"
x!"
xk
#4505
xH"
x/"
xy
#4514
xU"
x""
xl
#4522
xT"
x#"
xm
#4590
x<"
xv!
xb
#4604
x\"
xy!
xe
#4631
1{"
#4632
1e#
#4638
1@#
#4661
x?"
x8"
x$!
#4665
1s#
#4684
13#
#4686
1##
#4691
xA"
x6"
x"!
#4692
xY"
x|!
xh
#4703
xG"
x0"
xz
#4704
1%#
#4714
1'#
#4743
1a"
#4764
xP"
x'"
xq
#4816
xR"
x%"
xo
#4819
xS"
x$"
xn
#4877
1S#
#4906
0($
#4918
1|#
#4926
1N#
#4938
1x"
#4940
x>"
x9"
x%!
#4941
1W#
#4951
0{$
#4952
1)#
#4953
0j$
#4956
0e$
#4974
x@"
x7"
x#!
#5054
x]"
x;"
x)!
#5058
1I#
#5095
1.#
#5108
1m#
1l"
#5111
1"$
#5127
xD"
1r"
x3"
x}
